{
  "directories": [
    { "id": "1", "name": "songs", "type": "folder", "parent": "root", "size": null },
    { "id": "2", "name": "pop", "type": "folder", "parent": "1", "size": null },
    { "id": "3", "name": "Blank Space", "type": "file", "parent": "2", "size": "2MB" },
    { "id": "4", "name": "video", "type": "folder", "parent": "root", "size": null },
    { "id": "5", "name": "code", "type": "folder", "parent": "root", "size": null },
    { "id": "6", "name": "learn", "type": "folder", "parent": "root", "size": null }
  ]
}
